{
  "posts": [
    {
      "id": 1,
      "email": "sl@gmail.com",
      "contact": "123456789",
      "author": "Study Link"
    },
    {
      "title": "POST TWO",
      "author": "HT",
      "body": "Some Cool content for the post two!",
      "id": 2
    },
    {
      "id": 3,
      "title": "POST THREE",
      "body": "Some Cool content for the post three!",
      "author": "HT"
    }
  ]
}